<?xml version="1.0" encoding="UTF-8" standalone="no"?>
<!-- Generator: Adobe Illustrator 17.0.0, SVG Export Plug-In . SVG Version: 6.00 Build 0)  -->

<svg
   xmlns:dc="http://purl.org/dc/elements/1.1/"
   xmlns:cc="http://creativecommons.org/ns#"
   xmlns:rdf="http://www.w3.org/1999/02/22-rdf-syntax-ns#"
   xmlns:svg="http://www.w3.org/2000/svg"
   xmlns="http://www.w3.org/2000/svg"
   xmlns:sodipodi="http://sodipodi.sourceforge.net/DTD/sodipodi-0.dtd"
   xmlns:inkscape="http://www.inkscape.org/namespaces/inkscape"
   version="1.1"
   id="Capa_1"
   x="0px"
   y="0px"
   width="64px"
   height="64px"
   viewBox="0 0 64 64"
   style="enable-background:new 0 0 64 64;"
   xml:space="preserve"
   inkscape:version="0.91 r13725"
   sodipodi:docname="voice15.svg"><metadata
     id="metadata3362"><rdf:RDF><cc:Work
         rdf:about=""><dc:format>image/svg+xml</dc:format><dc:type
           rdf:resource="http://purl.org/dc/dcmitype/StillImage" /></cc:Work></rdf:RDF></metadata><defs
     id="defs3360" /><sodipodi:namedview
     pagecolor="#ffffff"
     bordercolor="#666666"
     borderopacity="1"
     objecttolerance="10"
     gridtolerance="10"
     guidetolerance="10"
     inkscape:pageopacity="0"
     inkscape:pageshadow="2"
     inkscape:window-width="1366"
     inkscape:window-height="745"
     id="namedview3358"
     showgrid="false"
     inkscape:zoom="9.03125"
     inkscape:cx="32"
     inkscape:cy="32"
     inkscape:window-x="-8"
     inkscape:window-y="-8"
     inkscape:window-maximized="1"
     inkscape:current-layer="Capa_1" /><path
     d="M40.953,31.519V16.864c0-4.726-3.832-8.558-8.558-8.558c-4.727,0-8.557,3.832-8.557,8.558v14.654  c0,4.726,3.83,8.558,8.557,8.558C37.121,40.076,40.953,36.245,40.953,31.519z"
     id="path3354"
     style="fill:#ffffff" /><path
     d="M47.589,32.396v-7.043c0.87-0.626,1.954-1.564,2.017-2.392c0.101-1.312-2.017-2.567-2.017-2.567h-2.994v12.003  c0,6.721-5.468,12.189-12.189,12.189c-6.72,0-12.187-5.468-12.187-12.189V20.394h-2.995c0,0-2.145,1.176-2.038,2.567  c0.063,0.834,1.165,1.781,2.038,2.407v7.028c0,7.133,4.946,13.131,11.589,14.75v5.338h-2.78v3.209h2.78h7.166h2.781v-3.209h-2.781  v-5.332C42.632,45.541,47.589,39.538,47.589,32.396z"
     id="path3356"
     style="fill:#ffffff" /></svg>